…
``` r
#Summarizing: #3
original_type <- steam_games %>%
                 group_by(types) %>%
                 mutate(original_level = factor(case_when(
                 original_price < quantile(original_price, 0.2, na.rm = TRUE) ~ "very low",
                 original_price < quantile(original_price, 0.4, na.rm = TRUE) ~ "low",
                 original_price < quantile(original_price, 0.6, na.rm = TRUE) ~ "moderate",
                 original_price < quantile(original_price, 0.8, na.rm = TRUE) ~ "high",
                 TRUE ~ "very high"),
                 levels = c('very low', 'low', 'moderate', 'high', 'very high')))
print(original_type)
```

    ## # A tibble: 40,833 × 22
    ## # Groups:   types [4]
    ##       id url    types name  desc_snippet recent_reviews all_reviews release_date
    ##    <dbl> <chr>  <chr> <chr> <chr>        <chr>          <chr>       <chr>       
    ##  1     1 https… app   DOOM  Now include… Very Positive… Very Posit… May 12, 2016
    ##  2     2 https… app   PLAY… PLAYERUNKNO… Mixed,(6,214)… Mixed,(836… Dec 21, 2017
    ##  3     3 https… app   BATT… Take comman… Mixed,(166),-… Mostly Pos… Apr 24, 2018
    ##  4     4 https… app   DayZ  The post-so… Mixed,(932),-… Mixed,(167… Dec 13, 2018
    ##  5     5 https… app   EVE … EVE Online … Mixed,(287),-… Mostly Pos… May 6, 2003 
    ##  6     6 https… bund… Gran… Grand Theft… NaN            NaN         NaN         
    ##  7     7 https… app   Devi… The ultimat… Very Positive… Very Posit… Mar 7, 2019 
    ##  8     8 https… app   Huma… Human: Fall… Very Positive… Very Posit… Jul 22, 2016
    ##  9     9 https… app   They… They Are Bi… Very Positive… Very Posit… Dec 12, 2017
    ## 10    10 https… app   Warh… In a world … <NA>           Mixed,(904… May 31, 2019
    ## # ℹ 40,823 more rows
    ## # ℹ 14 more variables: developer <chr>, publisher <chr>, popular_tags <chr>,
    ## #   game_details <chr>, languages <chr>, achievements <dbl>, genre <chr>,
    ## #   game_description <chr>, mature_content <chr>, minimum_requirements <chr>,
    ## #   recommended_requirements <chr>, original_price <dbl>, discount_price <dbl>,
    ## #   original_level <fct>
…
    ## `summarise()` has grouped output by 'discount_level'. You can override using
    ## the `.groups` argument.

``` r
print(discount_orginal)
```

    ## # A tibble: 25 × 3
    ## # Groups:   discount_level [5]
    ##    discount_level original_level count
    ##    <fct>          <fct>          <int>
    ##  1 high           very low         163
    ##  2 high           low              268
    ##  3 high           moderate         455
    ##  4 high           high             614
    ##  5 high           very high       1447
    ##  6 low            very low         349
    ##  7 low            low              585
    ##  8 low            moderate         631
    ##  9 low            high             494
    ## 10 low            very high        847
    ## # ℹ 15 more rows
…
